My Data Analysis Portfolio - Machine Learning
…
! Fold1, Repeat5: internal: A correlation computation is required, but `estimate` is constant and ha...

! Fold2, Repeat5: internal: A correlation computation is required, but `estimate` is constant and ha...

! Fold3, Repeat5: internal: A correlation computation is required, but `estimate` is constant and ha...

! Fold4, Repeat5: internal: A correlation computation is required, but `estimate` is constant and ha...

! Fold5, Repeat5: internal: A correlation computation is required, but `estimate` is constant and ha...

#get metrics
tree_res %>% 
  collect_metrics()

# A tibble: 50 × 8
   cost_complexity tree_depth .metric .estimator     mean     n  std_err .config
             <dbl>      <int> <chr>   <chr>         <dbl> <int>    <dbl> <chr>  
 1    0.0000000001          1 rmse    standard     1.19      25  0.0181  Prepro…
 2    0.0000000001          1 rsq     standard     0.0361    25  0.00422 Prepro…
 3    0.0000000178          1 rmse    standard     1.19      25  0.0181  Prepro…
 4    0.0000000178          1 rsq     standard     0.0361    25  0.00422 Prepro…
 5    0.00000316            1 rmse    standard     1.19      25  0.0181  Prepro…
 6    0.00000316            1 rsq     standard     0.0361    25  0.00422 Prepro…
 7    0.000562              1 rmse    standard     1.19      25  0.0181  Prepro…
 8    0.000562              1 rsq     standard     0.0361    25  0.00422 Prepro…
 9    0.1                   1 rmse    standard     1.21      25  0.0177  Prepro…
10    0.1                   1 rsq     standard   NaN          0 NA       Prepro…
# … with 40 more rows
…
#Train and tune model
lasso_res <- 
  lasso_workflow %>% 
  tune_grid(resample_object,
            grid = lasso_grid,
            control = control_grid(save_pred = TRUE),
            metrics = metric_set(rmse))
lasso_res %>% collect_metrics()

# A tibble: 30 × 7
    penalty .metric .estimator  mean     n std_err .config              
      <dbl> <chr>   <chr>      <dbl> <int>   <dbl> <chr>                
 1 0.0001   rmse    standard    1.18    25  0.0167 Preprocessor1_Model01
 2 0.000127 rmse    standard    1.18    25  0.0167 Preprocessor1_Model02
 3 0.000161 rmse    standard    1.18    25  0.0167 Preprocessor1_Model03
 4 0.000204 rmse    standard    1.18    25  0.0167 Preprocessor1_Model04
 5 0.000259 rmse    standard    1.18    25  0.0167 Preprocessor1_Model05
 6 0.000329 rmse    standard    1.18    25  0.0167 Preprocessor1_Model06
 7 0.000418 rmse    standard    1.18    25  0.0167 Preprocessor1_Model07
 8 0.000530 rmse    standard    1.18    25  0.0167 Preprocessor1_Model08
 9 0.000672 rmse    standard    1.18    25  0.0167 Preprocessor1_Model09
10 0.000853 rmse    standard    1.18    25  0.0167 Preprocessor1_Model10
# … with 20 more rows
…
