My Data Analysis Portfolio - Tidy Tuesday Exercise
…
age_gaps %>% filter(age_difference==52)

# A tibble: 1 × 13
  movie_name     relea…¹ direc…² age_d…³ coupl…⁴ actor…⁵ actor…⁶ chara…⁷ chara…⁸
  <chr>            <dbl> <chr>     <dbl>   <dbl> <chr>   <chr>   <chr>   <chr>  
1 Harold and Ma…    1971 Hal As…      52       1 Ruth G… Bud Co… woman   man    
# … with 4 more variables: actor_1_birthdate <date>, actor_2_birthdate <date>,
#   actor_1_age <dbl>, actor_2_age <dbl>, and abbreviated variable names
#   ¹​release_year, ²​director, ³​age_difference, ⁴​couple_number, ⁵​actor_1_name,
#   ⁶​actor_2_name, ⁷​character_1_gender, ⁸​character_2_gender

age_gaps %>% filter(age_difference==0)

# A tibble: 30 × 13
   movie_name    relea…¹ direc…² age_d…³ coupl…⁴ actor…⁵ actor…⁶ chara…⁷ chara…⁸
   <chr>           <dbl> <chr>     <dbl>   <dbl> <chr>   <chr>   <chr>   <chr>  
 1 10 Things I …    1999 Gil Ju…       0       2 Joseph… Larisa… man     woman  
 2 A Happening …    2017 Judy G…       0       2 Common  Jennif… man     woman  
 3 A Simple Fav…    2018 Paul F…       0       2 Henry … Blake … man     woman  
 4 American Hus…    2013 David …       0       3 Christ… Amy Ad… man     woman  
 5 American Pie     1999 Paul W…       0       4 Mena S… Chris … woman   man    
 6 Blue Valenti…    2010 Derek …       0       1 Michel… Ryan G… woman   man    
 7 Catch Me If …    2002 Steven…       0       1 Amy Ad… Leonar… woman   man    
 8 Chicago          2002 Rob Ma…       0       2 Renee … Domini… woman   man    
 9 Daddy's Litt…    2007 Tyler …       0       1 Idris … Gabrie… man     woman  
10 Empire           2002 Franc.…       0       2 Denise… Peter … woman   man    
# … with 20 more rows, 4 more variables: actor_1_birthdate <date>,
#   actor_2_birthdate <date>, actor_1_age <dbl>, actor_2_age <dbl>, and
#   abbreviated variable names ¹​release_year, ²​director, ³​age_difference,
#   ⁴​couple_number, ⁵​actor_1_name, ⁶​actor_2_name, ⁷​character_1_gender,
#   ⁸​character_2_gender
…
