My Data Analysis Portfolio - Tidy Tuesday Exercise 2
…
tree_wf <- workflow() %>%
  add_model(tune_spec) %>%
  add_recipe(egg_recipe)
#Tuning grid cross validation
tree_res <- 
  tree_wf %>% 
  tune_grid(
    resamples = resample,
    grid = tree_grid
    )
#get metrics
tree_res %>% 
  collect_metrics()

# A tibble: 50 × 8
   cost_complexity tree_depth .metric .estimator      mean     n std_err .config
             <dbl>      <int> <chr>   <chr>          <dbl> <int>   <dbl> <chr>  
 1    0.0000000001          1 rmse    standard     3.80e+8     4 1.49e+7 Prepro…
 2    0.0000000001          1 rsq     standard     9.85e-1     4 8.18e-4 Prepro…
 3    0.0000000178          1 rmse    standard     3.80e+8     4 1.49e+7 Prepro…
 4    0.0000000178          1 rsq     standard     9.85e-1     4 8.18e-4 Prepro…
 5    0.00000316            1 rmse    standard     3.80e+8     4 1.49e+7 Prepro…
 6    0.00000316            1 rsq     standard     9.85e-1     4 8.18e-4 Prepro…
 7    0.000562              1 rmse    standard     3.80e+8     4 1.49e+7 Prepro…
 8    0.000562              1 rsq     standard     9.85e-1     4 8.18e-4 Prepro…
 9    0.1                   1 rmse    standard     3.80e+8     4 1.49e+7 Prepro…
10    0.1                   1 rsq     standard     9.85e-1     4 8.18e-4 Prepro…
# … with 40 more rows
…
# A tibble: 2 × 4
  .metric .estimator     .estimate .config             
  <chr>   <chr>              <dbl> <chr>               
1 rmse    standard   183805581.    Preprocessor1_Model1
2 rsq     standard           0.997 Preprocessor1_Model1

final_fit %>% collect_predictions()

# A tibble: 67 × 5
   id                     .pred  .row     n_eggs .config             
   <chr>                  <dbl> <int>      <dbl> <chr>               
 1 train/test split 1099833763.     1 1142700000 Preprocessor1_Model1
 2 train/test split 1099833763.     2 1093300000 Preprocessor1_Model1
 3 train/test split 1099833763.     3 1126700000 Preprocessor1_Model1
 4 train/test split 1099833763.    10 1138500000 Preprocessor1_Model1
 5 train/test split 1099833763.    11 1115900000 Preprocessor1_Model1
 6 train/test split 1159113333.    12 1170800000 Preprocessor1_Model1
 7 train/test split 1159113333.    19 1045600000 Preprocessor1_Model1
 8 train/test split 1159113333.    20 1166900000 Preprocessor1_Model1
 9 train/test split 1159113333.    24 1199700000 Preprocessor1_Model1
10 train/test split 1159113333.    28 1146000000 Preprocessor1_Model1
# … with 57 more rows
…
#Train and tune model
lasso_res <- 
  lasso_workflow %>% 
  tune_grid(resample,
            grid = lasso_grid,
            control = control_grid(save_pred = TRUE),
            metrics = metric_set(rmse))
lasso_res %>% collect_metrics()

# A tibble: 30 × 7
    penalty .metric .estimator       mean     n   std_err .config              
      <dbl> <chr>   <chr>           <dbl> <int>     <dbl> <chr>                
 1 0.0001   rmse    standard   113084717.     4 11150638. Preprocessor1_Model01
 2 0.000127 rmse    standard   113084717.     4 11150638. Preprocessor1_Model02
 3 0.000161 rmse    standard   113084717.     4 11150638. Preprocessor1_Model03
 4 0.000204 rmse    standard   113084717.     4 11150638. Preprocessor1_Model04
 5 0.000259 rmse    standard   113084717.     4 11150638. Preprocessor1_Model05
 6 0.000329 rmse    standard   113084717.     4 11150638. Preprocessor1_Model06
 7 0.000418 rmse    standard   113084717.     4 11150638. Preprocessor1_Model07
 8 0.000530 rmse    standard   113084717.     4 11150638. Preprocessor1_Model08
 9 0.000672 rmse    standard   113084717.     4 11150638. Preprocessor1_Model09
10 0.000853 rmse    standard   113084717.     4 11150638. Preprocessor1_Model10
# … with 20 more rows
…
